%YAML 1.1
%TAG !u! tag:unity3d.com,2011:
--- !u!1 &8512725006165951581
GameObject:
  m_ObjectHideFlags: 0
  m_CorrespondingSourceObject: {fileID: 0}
  m_PrefabInstance: {fileID: 0}
  m_PrefabAsset: {fileID: 0}
  serializedVersion: 6
  m_Component:
  - component: {fileID: 8512725006165951583}
  - component: {fileID: 482792651372398378}
  m_Layer: 0
  m_Name: GlobalController
  m_TagString: GlobalController
  m_Icon: {fileID: 0}
  m_NavMeshLayer: 0
  m_StaticEditorFlags: 0
  m_IsActive: 1
--- !u!4 &8512725006165951583
Transform:
  m_ObjectHideFlags: 0
  m_CorrespondingSourceObject: {fileID: 0}
  m_PrefabInstance: {fileID: 0}
  m_PrefabAsset: {fileID: 0}
  m_GameObject: {fileID: 8512725006165951581}
  m_LocalRotation: {x: 0, y: 0, z: 0, w: 1}
  m_LocalPosition: {x: 4.480032, y: 9.193495, z: -58.564526}
  m_LocalScale: {x: 1, y: 1, z: 1}
  m_Children: []
  m_Father: {fileID: 0}
  m_RootOrder: 0
  m_LocalEulerAnglesHint: {x: 0, y: 0, z: 0}
--- !u!114 &482792651372398378
MonoBehaviour:
  m_ObjectHideFlags: 0
  m_CorrespondingSourceObject: {fileID: 0}
  m_PrefabInstance: {fileID: 0}
  m_PrefabAsset: {fileID: 0}
  m_GameObject: {fileID: 8512725006165951581}
  m_Enabled: 1
  m_EditorHideFlags: 0
  m_Script: {fileID: 11500000, guid: 7dcfbc20dbc010a41908427486392361, type: 3}
  m_Name: 
  m_EditorClassIdentifier: 
  initialGlobalState: 0
  sceneGame:
    sceneAsset: {fileID: 102900000, guid: a43803736defad546a49e26a48cb65ad, type: 3}
    sceneName: Game
  sceneMainMenu:
    sceneAsset: {fileID: 102900000, guid: 417b77dfd494b0943a57e84dcb622021, type: 3}
    sceneName: MainMenu
  sceneLevels:
  - sceneAsset: {fileID: 102900000, guid: 95ca85fcd44508d4da275e139746955b, type: 3}
    sceneName: Level 1
  - sceneAsset: {fileID: 102900000, guid: e33f601f85753bc4e9870ceb8b121b9d, type: 3}
    sceneName: Level 2
  - sceneAsset: {fileID: 102900000, guid: 0e67300f39a727f40a39a310a87b6bbe, type: 3}
    sceneName: Level 3
  - sceneAsset: {fileID: 102900000, guid: d7d211a989de2224dabcf3dc77897a9d, type: 3}
    sceneName: Level 4
  - sceneAsset: {fileID: 102900000, guid: c3b94e4a7963fed4282e35dd5d692ee9, type: 3}
    sceneName: Level 5
  loadingScreenTimeInSeconds: 2
