%YAML 1.1
%TAG !u! tag:unity3d.com,2011:
--- !u!78 &1
TagManager:
  serializedVersion: 2
  tags:
  - MainController
  - Terrain
  - NavigationMesh
  - Flora
  - Water
  - Fauna
  - Database
  - PlayerController
  - Enemy
  - Laser
  - EventChannel
  - GameHUD
  - PlayerDeathEventChannel
  - Score
  - EnergyBar
  - Lives
  - ProjectileEnemy
  - Rail
  - GameOver
  - Pickable
  - TimeToBeBold
  - KillZone
  - RailConnectionPoint
  - PlayerHurtbox
  - GlobalController
  - InvertedGravityZone
  - LevelEndFlag
  - LoadingScreenController
  - ButtonHitBox
  - PlayerGainedScoreEventChannel
  - Victory
  - AchievementProgressedEventChannel
  - TimeScalerController
  - PlayerCreatedAccountEventChannel
  - AccountRepository
  - AccountPanelController
  - SignInController
  - ActiveAccount
  - MusicController
  - PauseController
  - ScoreRepository
  - UserAchievementRepository
  - GameHasEndedFormallyEventChannel
  - ScoreSaver
  - UserGainedAchievementEventChannel
  - CameraMover
  - CameraShaker
  - PlayerHasAnAccountEventChannel
  - CountdownCanvas
  - TimeScaleChangedEventChannel
  - CheckpointCanvasController
  - VolumeChangedEventChannel
  layers:
  - Default
  - TransparentFX
  - Ignore Raycast
  - 
  - Water
  - UI
  - 
  - 
  - Sensor
  - PostProcessing
  - 
  - 
  - 
  - 
  - 
  - 
  - 
  - 
  - 
  - 
  - 
  - 
  - 
  - 
  - 
  - 
  - 
  - 
  - 
  - 
  - 
  - 
  m_SortingLayers:
  - name: Default
    uniqueID: 0
    locked: 0
  - name: Zone
    uniqueID: 3557287521
    locked: 0
  - name: DoorAndButton
    uniqueID: 533980147
    locked: 0
  - name: Terrain
    uniqueID: 3120661957
    locked: 0
  - name: Actors
    uniqueID: 2706817465
    locked: 0
  - name: Player
    uniqueID: 2365437457
    locked: 0
  - name: PlayerGun
    uniqueID: 3564904321
    locked: 0
